Data Wrangling – IS415
…
Lastly, we use mutate() from dplyr and dmy() of base R to convert the values in the event_date field to Date class.

points_study <- points_23883 %>%
  filter(grepl("Papua", admin1, fixed = TRUE)) %>%
  select(event_date, event_type, actor1, actor2, admin1, admin2, fatalities, notes, geometry) %>%
  mutate(event_date = dmy(event_date))

points_study

Simple feature collection with 2942 features and 8 fields
Geometry type: POINT
Dimension:     XY
Bounding box:  xmin: -23320.68 ymin: 9056317 xmax: 1153416 ymax: 9956392
Projected CRS: DGN95 / UTM zone 53S
# A tibble: 2,942 × 9
   event_date event_type            actor1 actor2 admin1 admin2 fatalities notes
 * <date>     <chr>                 <chr>  <chr>  <chr>  <chr>       <dbl> <chr>
 1 2024-06-30 Violence against civ… Milit… Civil… Centr… Intan…          1 On 3…
 2 2024-06-29 Strategic developmen… Civil… <NA>   Centr… Puncak          0 Disp…
 3 2024-06-29 Battles               TPNPB… Milit… Centr… Puncak          1 On 2…
 4 2024-06-28 Protests              Prote… <NA>   Papua  Jayap…          0 On 2…
 5 2024-06-28 Protests              Prote… <NA>   South… Sorong          0 On 2…
 6 2024-06-28 Battles               TPNPB… Milit… Centr… Puncak          0 On 2…
 7 2024-06-27 Protests              Prote… <NA>   South… South…          0 On 2…
 8 2024-06-27 Protests              Prote… <NA>   Papua  Jayap…          0 On 2…
 9 2024-06-22 Battles               Milit… TPNPB… South… Maybr…          0 On 2…
10 2024-06-22 Protests              Prote… <NA>   Papua  Jayap…          0 On 2…
# ℹ 2,932 more rows
# ℹ 1 more variable: geometry <POINT [m]>
…
We use mutate() of dplyr and str_replace_all() of stringr to replace the names in points_study1 with the corresponding equivalents from papua_adm2.

points_study_final <- points_study1 %>%
  mutate(admin2 = str_replace_all(admin2, c("Central Mamberamo" = "Mamberamo Tengah", "Fakfak" = "Fak Fak", "South Manokwari" = "Manokwari Selatan", "South Sorong" = "Sorong Selatan", "Yapen Islands" = "Kepulauan Yapen")))

points_study_final

Simple feature collection with 2942 features and 8 fields
Geometry type: POINT
Dimension:     XY
Bounding box:  xmin: -23323.36 ymin: 9056307 xmax: 1153416 ymax: 9956383
Projected CRS: DGN95 / UTM zone 53S
# A tibble: 2,942 × 9
   event_date event_type            actor1 actor2 admin1 admin2 fatalities notes
 * <date>     <chr>                 <chr>  <chr>  <chr>  <chr>       <dbl> <chr>
 1 2024-06-30 Violence against civ… Milit… Civil… Papua… Intan…          1 On 3…
 2 2024-06-29 Strategic developmen… Civil… <NA>   Papua… Puncak          0 Disp…
 3 2024-06-29 Battles               TPNPB… Milit… Papua… Puncak          1 On 2…
 4 2024-06-28 Protests              Prote… <NA>   Papua  Jayap…          0 On 2…
 5 2024-06-28 Protests              Prote… <NA>   Papua… Sorong          0 On 2…
 6 2024-06-28 Battles               TPNPB… Milit… Papua… Puncak          0 On 2…
 7 2024-06-27 Protests              Prote… <NA>   Papua… Soron…          0 On 2…
 8 2024-06-27 Protests              Prote… <NA>   Papua  Jayap…          0 On 2…
 9 2024-06-22 Battles               Milit… TPNPB… Papua… Maybr…          0 On 2…
10 2024-06-22 Protests              Prote… <NA>   Papua  Jayap…          0 On 2…
# ℹ 2,932 more rows
# ℹ 1 more variable: geometry <POINT [m]>
…
